INSERT INTO kupovina VALUES
('2a156730-c925-47e7-8126-95b42d8ac13a','2000-12-01','0c0df7ae-976c-431a-9df1-929ceef09c90'),
('633d322e-b543-4672-9098-3be97fb7909b','2000-12-02','103ac028-9eab-46ce-9934-b805f145511b'),
('13490d48-a63a-4291-80bf-89270067fd68','2000-12-03','4ac1d328-9c5a-446f-a6f3-44bfbf620a42'),
('04761048-2efc-459b-bd75-107d19c15f8e','2000-12-04','56d98cf1-8a4f-4d8b-9fa6-4e4a17bf45e2'),
('c039270c-0107-42b8-b6b5-a83a33b7f618','2000-12-05','97f70a77-23ab-4167-833a-5104effd9134'),
('26e36db2-a57c-4c86-bd14-f12bf4deb0dd','2000-12-06','9a1755c6-f224-4459-94f5-189bc1b5a610'),
('c4afec5e-a617-4f00-b6cf-1c01ec4ef0ce','2000-12-07','dace7696-dfbc-474a-a331-4cc52ef15861'),
('fee942c3-c1dc-4f18-a8f6-f04486ceebc3','2000-12-08','e0791ad2-5093-48d0-9bd9-bad4d6915414'),
('23166ebe-f5f7-43b7-a796-a1fa8b88703a','2000-12-09','e50a94a7-ccd4-448c-b0b9-cf05fb5404fb'),
('708e9602-cd23-4183-853f-c1a7715a6b93','2000-12-10','e50a94a7-ccd4-448c-b0b9-cf05fb5404fc'),
('93ea0945-0d71-4435-b988-0cb178a7080a','2000-12-11','f3850dc2-2f0b-4d81-95aa-bb6b18ef3f6c'),
('b44ee337-2020-46f5-aa28-8b2a82f70fa4','2000-12-12','f72d9194-bc44-4c04-b2e9-5147425490ea');